Home · MLDatasets.jl
…
julia> summary(X_train)
"28×28×60000 Array{Float32, 3}"
Input features are commonly denoted by features, while classification labels and regression targets are denoted by targets.

julia> using MLDatasets, DataFrames

julia> iris = Iris()
dataset Iris:
  metadata    =>    Dict{String, Any} with 4 entries
  features    =>    150×4 DataFrame
  targets     =>    150×1 DataFrame
  dataframe   =>    150×5 DataFrame

julia> iris.features
150×4 DataFrame
 Row │ sepallength  sepalwidth  petallength  petalwidth 
     │ Float64      Float64     Float64      Float64    
─────┼──────────────────────────────────────────────────
   1 │         5.1         3.5          1.4         0.2
   2 │         4.9         3.0          1.4         0.2
   3 │         4.7         3.2          1.3         0.2
   4 │         4.6         3.1          1.5         0.2
   5 │         5.0         3.6          1.4         0.2
   6 │         5.4         3.9          1.7         0.4
   7 │         4.6         3.4          1.4         0.3
   8 │         5.0         3.4          1.5         0.2
   9 │         4.4         2.9          1.4         0.2
  ⋮  │      ⋮           ⋮            ⋮           ⋮
 142 │         6.9         3.1          5.1         2.3
 143 │         5.8         2.7          5.1         1.9
 144 │         6.8         3.2          5.9         2.3
 145 │         6.7         3.3          5.7         2.5
 146 │         6.7         3.0          5.2         2.3
 147 │         6.3         2.5          5.0         1.9
 148 │         6.5         3.0          5.2         2.0
 149 │         6.2         3.4          5.4         2.3
 150 │         5.9         3.0          5.1         1.8
                                        132 rows omitted

julia> iris.targets
150×1 DataFrame
 Row │ class          
     │ String15       
─────┼────────────────
   1 │ Iris-setosa
   2 │ Iris-setosa
   3 │ Iris-setosa
   4 │ Iris-setosa
   5 │ Iris-setosa
   6 │ Iris-setosa
   7 │ Iris-setosa
   8 │ Iris-setosa
   9 │ Iris-setosa
  ⋮  │       ⋮
 142 │ Iris-virginica
 143 │ Iris-virginica
 144 │ Iris-virginica
 145 │ Iris-virginica
 146 │ Iris-virginica
 147 │ Iris-virginica
 148 │ Iris-virginica
 149 │ Iris-virginica
 150 │ Iris-virginica
      132 rows omitted
…
